<svg xmlns="http://www.w3.org/2000/svg" width="480" height="303" class="">
    <defs>
        <style/>
    </defs>
    <style>@keyframes animation-gauge{0%{stroke-dasharray:0 329}}@keyframes animation-rainbow{0%,to{color:#7f00ff;fill:#7f00ff}14%{color:#a933ff;fill:#a933ff}29%{color:#007fff;fill:#007fff}43%{color:#00ff7f;fill:#00ff7f}57%{color:#ff0;fill:#ff0}71%{color:#ff7f00;fill:#ff7f00}86%{color:red;fill:red}}svg{font-family:-apple-system,BlinkMacSystemFont,Segoe UI,Helvetica,Arial,sans-serif,Apple Color Emoji,Segoe UI Emoji;font-size:14px;color:#777}h2{margin:8px 0 2px;padding:0;color:#0366d6;font-weight:400;font-size:16px}.gauge text,h2 svg{fill:currentColor}section&gt;.field{margin-left:5px;margin-right:5px}.field{display:flex;align-items:center;margin-bottom:2px;white-space:nowrap}.field svg{margin:0 8px;fill:#959da5;flex-shrink:0}.row{display:flex;flex-wrap:wrap}.row section{flex:1 1 0}.gauge{stroke-linecap:round;fill:none}.achievement .gauge.info,.gauge.info{color:#58a6ff}.gauge-arc,.gauge-base{stroke:currentColor;stroke-width:10}.gauge-base{stroke-opacity:.2}.gauge-arc{fill:none;stroke-dashoffset:0;animation-delay:250ms;animation:animation-gauge 1s ease forwards}.gauge text{font-size:40px;font-family:monospace;text-anchor:middle;font-weight:600}.gauge .title{font-size:18px;color:#777}.repository{display:flex;flex-direction:column;width:100%;margin:6px 0}.achievement{display:flex;margin:4px 0}.achievement .icon{margin:0 4px;width:44px;height:44px}.achievement .text{font-size:12px;color:#666}.achievement .title{font-size:14px;color:#58a6ff}.achievement .value{background-color:#58a6ff26}.achievement.x .title{color:#666}.achievement.x .gauge.info{color:#b0b0b0}.achievement.x .value{background-color:#b0b0b026}.achievement.a .title{color:#d79533}.achievement.a .gauge.info{color:#e7bd69}.achievement.a .value{background-color:#e7bd6926}.achievement.s .gauge.info,.achievement.s .title{color:#eb355e}.achievement.s .value{background-color:#eb355e26}.achievement.secret .title{color:#ff76cd}.achievement.secret .gauge.info{color:#ff79d1}.achievement.secret .value{background-color:#ff79d126}.achievement .gh,.achievement .value{border:1px solid currentColor;border-radius:16px;font-size:10px;padding:0 5px;white-space:nowrap}.achievement .gauge-arc,.achievement .gauge-base{stroke-width:6}.achievement .value-wrapper{margin-bottom:-50px;margin-top:36px;display:none}.achievement .value{margin-left:46px}.achievements.compact{display:flex;flex-wrap:wrap}.achievements.compact .achievement{flex-direction:column-reverse;align-items:center;width:80px}#metrics-end,.achievements.compact .info{width:100%}.achievements.compact .achievement .title{margin-bottom:2px;text-transform:capitalize;text-align:center}.achievements.compact .achievement .title .prefix{min-height:13px;font-size:10px;display:block;margin-bottom:-.25rem}.achievements.compact .achievement .value-wrapper{display:flex}.achievements.compact .achievement .gh,.achievements.compact .achievement .text{display:none}:root{--color-calendar-graph-day-bg:#ebedf0;--color-calendar-graph-day-border:rgba(27,31,35,0.06);--color-calendar-graph-day-L1-bg:#9be9a8;--color-calendar-graph-day-L2-bg:#40c463;--color-calendar-graph-day-L3-bg:#30a14e;--color-calendar-graph-day-L4-bg:#216e39;--color-calendar-halloween-graph-day-L1-bg:#ffee4a;--color-calendar-halloween-graph-day-L2-bg:#ffc501;--color-calendar-halloween-graph-day-L3-bg:#fe9600;--color-calendar-halloween-graph-day-L4-bg:#03001c;--color-calendar-winter-graph-day-L1-bg:#0a3069;--color-calendar-winter-graph-day-L2-bg:#0969da;--color-calendar-winter-graph-day-L3-bg:#54aeff;--color-calendar-winter-graph-day-L4-bg:#b6e3ff;--color-calendar-graph-day-L4-border:rgba(27,31,35,0.06);--color-calendar-graph-day-L3-border:rgba(27,31,35,0.06);--color-calendar-graph-day-L2-border:rgba(27,31,35,0.06);--color-calendar-graph-day-L1-border:rgba(27,31,35,0.06)}</style>
    <style/>
    <foreignObject x="0" y="0" width="100%" height="100%">
        <div xmlns="http://www.w3.org/1999/xhtml" xmlns:xlink="http://www.w3.org/1999/xlink" class="items-wrapper">
            <section>
                <h2 class="field">
                    <svg xmlns="http://www.w3.org/2000/svg" viewBox="0 0 16 16" width="16" height="16">
                        <path fill-rule="evenodd" d="M3.217 6.962A3.75 3.75 0 010 3.25v-.5C0 1.784.784 1 1.75 1h1.356c.228-.585.796-1 1.462-1h6.864a1.57 1.57 0 011.462 1h1.356c.966 0 1.75.784 1.75 1.75v.5a3.75 3.75 0 01-3.217 3.712 5.014 5.014 0 01-2.771 3.117l.144 1.446c.005.05.03.12.114.204.086.087.217.17.373.227.283.103.618.274.89.568.285.31.467.723.467 1.226v.75h1.25a.75.75 0 110 1.5H2.75a.75.75 0 010-1.5H4v-.75c0-.503.182-.916.468-1.226.27-.294.606-.465.889-.568a1.03 1.03 0 00.373-.227c.084-.085.109-.153.114-.204l.144-1.446a5.014 5.014 0 01-2.77-3.117zM3 2.5H1.75a.25.25 0 00-.25.25v.5c0 .98.626 1.813 1.5 2.122V2.5zm4.457 7.97l-.12 1.204c-.093.925-.858 1.47-1.467 1.691a.764.764 0 00-.3.176c-.037.04-.07.093-.07.21v.75h5v-.75c0-.117-.033-.17-.07-.21a.763.763 0 00-.3-.176c-.609-.221-1.374-.766-1.466-1.69l-.12-1.204a5.052 5.052 0 01-1.087 0zM13 5.373V2.5h1.25a.25.25 0 01.25.25v.5A2.25 2.25 0 0113 5.372zM4.5 1.568c0-.037.03-.068.068-.068h6.864c.037 0 .068.03.068.068V5.5a3.5 3.5 0 11-7 0V1.568z"/>
                    </svg>
                    Achievements
                </h2>
                <div class="row">
                    <section class="achievements compact largeable-flex-wrap">
                        <div class="achievement s largeable-width-half">
                            <div class="icon">
                                <svg xmlns="http://www.w3.org/2000/svg" viewBox="0 0 60 60" height="44" width="44">
                                    <defs>
                                        <mask id="mask">
                                            <circle class="gauge-base" r="25" cx="28" cy="28" fill="white"/>
                                        </mask>
                                    </defs>
                                    <svg xmlns="http://www.w3.org/2000/svg" class="gauge info">
                                        <circle class="gauge-base" r="25" cx="28" cy="28"/>
                                        <circle class="gauge-arc" transform="rotate(-90 28 28)" r="25" cx="28" cy="28" stroke-dasharray="41.333333333333336 155"/>
                                    </svg>
                                    <svg xmlns="http://www.w3.org/2000/svg" mask="url(#mask)">
                                        <g stroke-width="2" fill="none" fill-rule="evenodd">
                                            <path d="M37.303 21.591a5.84 5.84 0 00-1.877-1.177 6.138 6.138 0 00-4.432 0 5.822 5.822 0 00-1.879 1.177L28 22.638l-1.115-1.047c-1.086-1.018-2.559-1.59-4.094-1.59-1.536 0-3.008.572-4.094 1.59-1.086 1.02-1.696 2.4-1.696 3.84 0 1.441.61 2.823 1.696 3.841l1.115 1.046L28 38l8.189-7.682 1.115-1.046a5.422 5.422 0 001.256-1.761 5.126 5.126 0 000-4.157 5.426 5.426 0 00-1.256-1.763z" stroke="#EB355E" stroke-linecap="round" stroke-linejoin="round"/>
                                            <path d="M15.967 42.705A18.922 18.922 0 0028 47a18.92 18.92 0 0011.076-3.56m-.032-30.902A18.914 18.914 0 0028 9c-4.09 0-7.876 1.292-10.976 3.49" stroke="#731237" stroke-linecap="round"/>
                                            <g transform="translate(7 10)" stroke="#EB355E">
                                                <path d="M6 0v7c0 2.21-1.343 3-3 3s-3-.79-3-3V0" stroke-linecap="round" stroke-linejoin="round"/>
                                                <path stroke-linecap="round" d="M3 0v19.675"/>
                                                <rect stroke-linejoin="round" x="1" y="20" width="4" height="16" rx="2"/>
                                            </g>
                                            <g transform="translate(43 10)" stroke="#EB355E">
                                                <path stroke-linecap="round" d="M2 15.968v3.674"/>
                                                <path d="M4 15.642H0L.014 4.045A4.05 4.05 0 014.028 0L4 15.642z" stroke-linecap="round" stroke-linejoin="round"/>
                                                <rect stroke-linejoin="round" y="19.968" width="4" height="16" rx="2"/>
                                            </g>
                                            <path d="M41.364 8.062A23.888 23.888 0 0028 4a23.89 23.89 0 00-11.95 3.182M4.75 22.021A24.045 24.045 0 004 28c0 1.723.182 3.404.527 5.024m10.195 14.971A23.888 23.888 0 0028 52c4.893 0 9.444-1.464 13.239-3.979m9-10.98A23.932 23.932 0 0052 28c0-2.792-.477-5.472-1.353-7.964" stroke="#731237" stroke-linecap="round"/>
                                        </g>
                                    </svg>
                                </svg>
                            </div>
                            <div class="info">
                                <div class="title">
                                    <span class="prefix">Master</span>
                                    forker
                                    <div class="value-wrapper">
                                        <div class="value">28</div>
                                    </div>
                                </div>
                                <div class="text">Forked 28 public repositories</div>
                            </div>
                        </div>
                        <div class="achievement a largeable-width-half">
                            <div class="icon">
                                <svg xmlns="http://www.w3.org/2000/svg" viewBox="0 0 60 60" height="44" width="44">
                                    <defs>
                                        <mask id="mask">
                                            <circle class="gauge-base" r="25" cx="28" cy="28" fill="white"/>
                                        </mask>
                                    </defs>
                                    <svg xmlns="http://www.w3.org/2000/svg" class="gauge info">
                                        <circle class="gauge-base" r="25" cx="28" cy="28"/>
                                        <circle class="gauge-arc" transform="rotate(-90 28 28)" r="25" cx="28" cy="28" stroke-dasharray="62.763860369609844 155"/>
                                    </svg>
                                    <svg xmlns="http://www.w3.org/2000/svg" mask="url(#mask)">
                                        <g xmlns="http://www.w3.org/2000/svg" transform="translate(5 4)" fill="none" fill-rule="evenodd">
                                            <path d="M46 44.557v1a2 2 0 01-2 2H2a2 2 0 01-2-2v-1" stroke="#FFD576" stroke-width="2" stroke-linecap="round" stroke-linejoin="round"/>
                                            <path d="M.75 40.993l.701.561a2.323 2.323 0 002.903 0l1.675-1.34a3 3 0 013.748 0l1.282 1.026a3 3 0 003.71.03l1.4-1.085a3 3 0 013.75.061l1.103.913a3 3 0 003.787.031l1.22-.976a3 3 0 013.748 0l1.282 1.026a3 3 0 003.71.03l1.4-1.085a3 3 0 013.75.061l1.429 1.182a2.427 2.427 0 003.103-.008l.832-.695A2 2 0 0046 39.191v-1.634a2 2 0 00-2-2H2a2 2 0 00-2 2v1.875a2 2 0 00.75 1.561z" stroke="#B59151" stroke-width="2" stroke-linecap="round" stroke-linejoin="round"/>
                                            <path d="M42 31.609v.948m-38 0v-.992m25.04-15.008H35a2 2 0 012 2v1m-28 0v-1a2 2 0 012-2h6.007" stroke="#FFD576" stroke-width="2" stroke-linecap="round" stroke-linejoin="round"/>
                                            <path d="M22 8.557h2a1 1 0 011 1v6a1 1 0 01-1 1h-2a1 1 0 01-1-1v-6a1 1 0 011-1z" stroke="#B59151" stroke-width="2" stroke-linejoin="round"/>
                                            <path d="M4.7 10.557c.316 1.122.572 1.372 1.71 1.678-1.136.314-1.39.566-1.7 1.69-.317-1.121-.573-1.372-1.71-1.679 1.135-.313 1.389-.566 1.7-1.689zm35-8c.316 1.122.572 1.372 1.71 1.678-1.136.314-1.39.566-1.7 1.69-.317-1.121-.573-1.372-1.71-1.679 1.135-.313 1.389-.566 1.7-1.689z" stroke="#B59151" stroke-width="2" stroke-linecap="round" stroke-linejoin="round"/>
                                            <path d="M23 5.557a2 2 0 002-2C25 2.452 24.433 0 22.273 0c-.463 0 .21 1.424-.502 1.979A2 2 0 0023 5.557z" stroke="#B59151" stroke-width="2"/>
                                            <path d="M4.78 27.982l1.346 1.076a3 3 0 003.748 0l1.252-1.002a3 3 0 013.748 0l1.282 1.026a3 3 0 003.711.03l1.4-1.085a3 3 0 013.75.061l1.102.913a3 3 0 003.787.031l1.22-.976a3 3 0 013.748 0l1.281 1.025a3 3 0 003.712.029l1.358-1.053a2 2 0 00.775-1.58v-.97a1.95 1.95 0 00-1.95-1.95H5.942a1.912 1.912 0 00-1.912 1.912v.951a2 2 0 00.75 1.562z" stroke="#B59151" stroke-width="2" stroke-linecap="round" stroke-linejoin="round"/>
                                            <circle stroke="#FFD576" cx="16.5" cy="2.057" r="1"/>
                                            <circle stroke="#FFD576" cx="14.5" cy="12.057" r="1"/>
                                            <circle stroke="#FFD576" cx="31.5" cy="9.057" r="1"/>
                                        </g>
                                    </svg>
                                </svg>
                            </div>
                            <div class="info">
                                <div class="title">
                                    <span class="prefix">Super</span>
                                    member
                                    <div class="value-wrapper">
                                        <div class="value">7</div>
                                    </div>
                                </div>
                                <div class="text">Registered 7 years ago</div>
                            </div>
                        </div>
                        <div class="achievement a largeable-width-half">
                            <div class="icon">
                                <svg xmlns="http://www.w3.org/2000/svg" viewBox="0 0 60 60" height="44" width="44">
                                    <defs>
                                        <mask id="mask">
                                            <circle class="gauge-base" r="25" cx="28" cy="28" fill="white"/>
                                        </mask>
                                    </defs>
                                    <svg xmlns="http://www.w3.org/2000/svg" class="gauge info">
                                        <circle class="gauge-base" r="25" cx="28" cy="28"/>
                                        <circle class="gauge-arc" transform="rotate(-90 28 28)" r="25" cx="28" cy="28" stroke-dasharray="19.375 155"/>
                                    </svg>
                                    <svg xmlns="http://www.w3.org/2000/svg" mask="url(#mask)">
                                        <g stroke-linecap="round" stroke-width="2" fill="none" fill-rule="evenodd">
                                            <path d="M17.135 7.988l-3.303.669a2 2 0 00-1.586 2.223l4.708 35.392a1.498 1.498 0 01-1.162 1.66 1.523 1.523 0 01-1.775-1.01L4.951 19.497a2 2 0 011.215-2.507l2.946-1.072" stroke="#FFD576" stroke-linejoin="round"/>
                                            <path d="M36.8 48H23a2 2 0 01-2-2V7a2 2 0 012-2h26a2 2 0 012 2v32.766" stroke="#B59151"/>
                                            <path d="M29 20.955l-3.399 3.399a.85.85 0 000 1.202l3.399 3.4M43.014 20.955l3.399 3.399a.85.85 0 010 1.202l-3.4 3.4" stroke="#B59151" stroke-linejoin="round"/>
                                            <path stroke="#B59151" d="M38.526 18l-5.053 14.016"/>
                                            <path d="M44 36a8 8 0 110 16 8 8 0 010-16z" stroke="#B59151" stroke-linejoin="round"/>
                                            <path d="M43.068 40.749l3.846 2.396a1 1 0 01-.006 1.7l-3.846 2.36a1 1 0 01-1.523-.853v-4.755a1 1 0 011.529-.848z" stroke="#B59151" stroke-linejoin="round"/>
                                        </g>
                                    </svg>
                                </svg>
                            </div>
                            <div class="info">
                                <div class="title">
                                    <span class="prefix">Super</span>
                                    polyglot
                                    <div class="value-wrapper">
                                        <div class="value">9</div>
                                    </div>
                                </div>
                                <div class="text">Using 9 different programming languages</div>
                            </div>
                        </div>
                        <div class="achievement a largeable-width-half">
                            <div class="icon">
                                <svg xmlns="http://www.w3.org/2000/svg" viewBox="0 0 60 60" height="44" width="44">
                                    <defs>
                                        <mask id="mask">
                                            <circle class="gauge-base" r="25" cx="28" cy="28" fill="white"/>
                                        </mask>
                                    </defs>
                                    <svg xmlns="http://www.w3.org/2000/svg" class="gauge info">
                                        <circle class="gauge-base" r="25" cx="28" cy="28"/>
                                        <circle class="gauge-arc" transform="rotate(-90 28 28)" r="25" cx="28" cy="28" stroke-dasharray="0 155"/>
                                    </svg>
                                    <svg xmlns="http://www.w3.org/2000/svg" mask="url(#mask)">
                                        <g stroke-linecap="round" stroke-width="2" fill="none" fill-rule="evenodd">
                                            <g stroke="#B59151">
                                                <path d="M20 24l-3.397 3.398a.85.85 0 000 1.203L20.002 32M37.015 24l3.399 3.398a.85.85 0 010 1.203L37.014 32" stroke-linejoin="round"/>
                                                <path d="M31.029 21.044L25.976 35.06"/>
                                            </g>
                                            <path stroke="#FFD576" stroke-linejoin="round" d="M23.018 10h8.984M26 47h5M8 16h16m9 0h15.725M8 41h13"/>
                                            <path d="M5.027 34.998c.673 2.157 1.726 4.396 2.81 6.02m43.38-19.095C50.7 19.921 49.866 17.796 48.79 16" stroke="#FFD576"/>
                                            <path stroke="#B59151" stroke-linejoin="round" d="M26 41h17"/>
                                            <path d="M7.183 16C5.186 19.582 4 23.619 4 28M42.608 47.02c2.647-1.87 5.642-5.448 7.295-9.18C51.52 34.191 52.071 30.323 52 28" stroke="#B59151"/>
                                            <path stroke="#B59151" stroke-linejoin="round" d="M7.226 16H28M13.343 47H21"/>
                                            <path d="M13.337 47.01a24.364 24.364 0 006.19 3.45 24.527 24.527 0 007.217 1.505c2.145.108 4.672-.05 7.295-.738" stroke="#B59151"/>
                                            <path stroke="#B59151" stroke-linejoin="round" d="M36 47h6.647M12 10h6M37 10h6.858"/>
                                            <path d="M43.852 10c-4.003-3.667-9.984-6.054-16.047-6-2.367.021-4.658.347-6.81 1.045" stroke="#B59151"/>
                                            <path stroke="#FFD576" stroke-linejoin="round" d="M5.041 35h4.962M47 22h4.191"/>
                                        </g>
                                    </svg>
                                </svg>
                            </div>
                            <div class="info">
                                <div class="title">
                                    <span class="prefix">Super</span>
                                    developer
                                    <span class="gh">ranked 627k out of 122m users</span>
                                    <div class="value-wrapper">
                                        <div class="value">50</div>
                                    </div>
                                </div>
                                <div class="text">Published 50 public repositories</div>
                            </div>
                        </div>
                        <div class="achievement c largeable-width-half">
                            <div class="icon">
                                <svg xmlns="http://www.w3.org/2000/svg" viewBox="0 0 60 60" height="44" width="44">
                                    <defs>
                                        <mask id="mask">
                                            <circle class="gauge-base" r="25" cx="28" cy="28" fill="white"/>
                                        </mask>
                                    </defs>
                                    <svg xmlns="http://www.w3.org/2000/svg" class="gauge info">
                                        <circle class="gauge-base" r="25" cx="28" cy="28"/>
                                        <circle class="gauge-arc" transform="rotate(-90 28 28)" r="25" cx="28" cy="28" stroke-dasharray="104.37185929648241 155"/>
                                    </svg>
                                    <svg xmlns="http://www.w3.org/2000/svg" mask="url(#mask)">
                                        <g fill="none" fill-rule="evenodd">
                                            <path d="M35 31a7 7 0 1114 0 7 7 0 01-14 0zm12-13a3 3 0 116 0 3 3 0 01-6 0zM33 49a3 3 0 116 0 3 3 0 01-6 0zM4 15a3 3 0 116 0 3 3 0 01-6 0zm37-8.5a2.5 2.5 0 115 0 2.5 2.5 0 01-5 0zM10 14l4.029-.576M19.008 26.016L21 19M29.019 34.001l5.967-1.948M36.997 46.003l2.977-8.02M46.05 24.031L48 21M28.787 18.012l7.248 8.009" stroke="#79B8FF" stroke-width="2" stroke-linecap="round" stroke-linejoin="round"/>
                                            <path d="M43.62 29.004c-1.157 0-1.437.676-1.62 1.173-.19-.498-.494-1.167-1.629-1.167-.909 0-1.355.777-1.371 1.632-.022 1.145 1.309 2.365 3 3.358 1.669-.983 3-2.23 3-3.358 0-.89-.54-1.638-1.38-1.638z" fill="#2088FF"/>
                                            <path stroke="#79B8FF" stroke-width="2" stroke-linecap="round" stroke-linejoin="round" d="M48.043 15.003L45 9"/>
                                            <path d="M21 12a3 3 0 116 0 3 3 0 01-6 0zM27 12h3M18 12h3M21 43c-.267-1.727-1.973-3-4-3-2.08 0-3.787 1.318-4 3m4-9a3 3 0 100 6 3 3 0 000-6z" stroke="#2088FF" stroke-width="2" stroke-linecap="round" stroke-linejoin="round"/>
                                            <path d="M17 30a9 9 0 110 18 9 9 0 110-18z" stroke="#2088FF" stroke-width="2" stroke-linecap="round" stroke-linejoin="round"/>
                                        </g>
                                    </svg>
                                </svg>
                            </div>
                            <div class="info">
                                <div class="title">
                                    <span class="prefix"></span>
                                    Follower
                                    <div class="value-wrapper">
                                        <div class="value">135</div>
                                    </div>
                                </div>
                                <div class="text">Following 135 users</div>
                            </div>
                        </div>
                        <div class="achievement c largeable-width-half">
                            <div class="icon">
                                <svg xmlns="http://www.w3.org/2000/svg" viewBox="0 0 60 60" height="44" width="44">
                                    <defs>
                                        <mask id="mask">
                                            <circle class="gauge-base" r="25" cx="28" cy="28" fill="white"/>
                                        </mask>
                                    </defs>
                                    <svg xmlns="http://www.w3.org/2000/svg" class="gauge info">
                                        <circle class="gauge-base" r="25" cx="28" cy="28"/>
                                        <circle class="gauge-arc" transform="rotate(-90 28 28)" r="25" cx="28" cy="28" stroke-dasharray="40.78947368421053 155"/>
                                    </svg>
                                    <svg xmlns="http://www.w3.org/2000/svg" mask="url(#mask)">
                                        <g stroke-width="2" fill="none" fill-rule="evenodd">
                                            <path d="M20 48.875v-12.75c0-1.33.773-2.131 2.385-2.125h26.23c1.612-.006 2.385.795 2.385 2.125v12.75C51 50.198 50.227 51 48.615 51h-26.23C20.773 51 20 50.198 20 48.875zM37 40.505h9M37 44.492h6" stroke="#2088FF" stroke-linecap="round" stroke-linejoin="round"/>
                                            <path stroke="#79B8FF" stroke-linecap="round" stroke-linejoin="round" d="M14 30h-4M16 35h-3M47 10H5M42 15H24M19 15h-9M16 25h-3M42 20h-2M42 20h-2M42 25h-2M16 20h-3"/>
                                            <path stroke="#2088FF" stroke-linecap="round" stroke-linejoin="round" d="M31.974 25H24"/>
                                            <path d="M22 20h12a2 2 0 012 2v6a2 2 0 01-2 2H22a2 2 0 01-2-2v-6a2 2 0 012-2z" stroke="#2088FF"/>
                                            <path d="M5 33V7a2 2 0 012-2h38a2 2 0 012 2v23" stroke="#79B8FF" stroke-linecap="round"/>
                                            <path d="M5 30v8c0 1.105.892 2 1.993 2H16" stroke="#79B8FF" stroke-linecap="round"/>
                                            <g stroke="#2088FF" stroke-linecap="round">
                                                <path d="M26.432 37.933v7.07M26.432 37.933v9.07M24.432 40.433h7.07M24.432 40.433h8.07M24.432 44.433h7.07M24.432 44.433h8.07M30.432 37.933v9.07"/>
                                            </g>
                                        </g>
                                    </svg>
                                </svg>
                            </div>
                            <div class="info">
                                <div class="title">
                                    <span class="prefix"></span>
                                    Gister
                                    <div class="value-wrapper">
                                        <div class="value">6</div>
                                    </div>
                                </div>
                                <div class="text">Published 6 gists</div>
                            </div>
                        </div>
                        <div class="achievement c largeable-width-half">
                            <div class="icon">
                                <svg xmlns="http://www.w3.org/2000/svg" viewBox="0 0 60 60" height="44" width="44">
                                    <defs>
                                        <mask id="mask">
                                            <circle class="gauge-base" r="25" cx="28" cy="28" fill="white"/>
                                        </mask>
                                    </defs>
                                    <svg xmlns="http://www.w3.org/2000/svg" class="gauge info">
                                        <circle class="gauge-base" r="25" cx="28" cy="28"/>
                                        <circle class="gauge-arc" transform="rotate(-90 28 28)" r="25" cx="28" cy="28" stroke-dasharray="27.26130653266332 155"/>
                                    </svg>
                                    <svg xmlns="http://www.w3.org/2000/svg" mask="url(#mask)">
                                        <g stroke-width="2" fill="none" fill-rule="evenodd">
                                            <g stroke="#79B8FF">
                                                <path d="M11 40a2 2 0 100-4 2 2 0 000 4z"/>
                                                <path d="M11 34v1m0 5v3m0 3v3" stroke-linecap="round"/>
                                            </g>
                                            <g stroke="#79B8FF" stroke-linecap="round" stroke-linejoin="round">
                                                <path d="M47.01 41.009h-4M45.016 39v4"/>
                                            </g>
                                            <path d="M27.982 5c2.79 1.873 4.46 5.876 5.008 12.01l2.059.659a1.606 1.606 0 011.606-1.665h.84a2.513 2.513 0 012.511 2.508l.004 1.496 3.197 1.588a1.951 1.951 0 011.684-.952l.509.002c.898.003 1.625.73 1.629 1.629l.008 2.115L51 27.606v1.945l-4.815-1.211c-.474.894-.87 1.48-1.192 1.757-.345-.328-.814-1.158-1.406-2.49L38.744 26.5c-.402 1.153-.845 1.828-1.328 2.026-.451-.444-1.04-1.55-1.409-2.821-1.481-.286-2.486-.56-2.994-.688-.27 2.397-1.036 6.884-2.009 10.982l5.006 4.438-6.555-1.08-1.454 3.654-1.45-3.658-6.56 1.082 4.996-4.417c-.899-4.02-1.576-7.684-2.03-10.992a37.29 37.29 0 01-2.967.679c-.38 1.252-.845 2.191-1.396 2.817-.63-.184-1.142-1.474-1.338-2.023-.705.15-2.323.519-4.853 1.107-.601 1.388-1.07 2.218-1.41 2.49a7.032 7.032 0 01-1.173-1.758L5 29.55v-1.945l3.99-3.265v-2.102a1.604 1.604 0 011.625-1.604l.528.007c.68.008 1.307.37 1.654.956l3.184-1.614.003-1.467a2.503 2.503 0 012.511-2.497l.863.003a1.6 1.6 0 011.594 1.646 62.42 62.42 0 012.024-.667c.572-6.097 2.24-10.098 5.006-12.002z" stroke="#2088FF" stroke-linecap="round" stroke-linejoin="round"/>
                                            <path stroke="#79B8FF" stroke-linecap="round" d="M45.016 36.032v-2M45.016 49.032v-3M38.978 36.089v-3.153M17.016 36.089v-3.153M51.031 51.165v-2.193m0-2.972V35.013M4.974 51.165v-2.193m0-2.972V35.013"/>
                                        </g>
                                    </svg>
                                </svg>
                            </div>
                            <div class="info">
                                <div class="title">
                                    <span class="prefix"></span>
                                    Deployer
                                    <div class="value-wrapper">
                                        <div class="value">36</div>
                                    </div>
                                </div>
                                <div class="text">Repositories have been deployed 36 times</div>
                            </div>
                        </div>
                        <div class="achievement c largeable-width-half">
                            <div class="icon">
                                <svg xmlns="http://www.w3.org/2000/svg" viewBox="0 0 60 60" height="44" width="44">
                                    <defs>
                                        <mask id="mask">
                                            <circle class="gauge-base" r="25" cx="28" cy="28" fill="white"/>
                                        </mask>
                                    </defs>
                                    <svg xmlns="http://www.w3.org/2000/svg" class="gauge info">
                                        <circle class="gauge-base" r="25" cx="28" cy="28"/>
                                        <circle class="gauge-arc" transform="rotate(-90 28 28)" r="25" cx="28" cy="28" stroke-dasharray="21.809045226130653 155"/>
                                    </svg>
                                    <svg xmlns="http://www.w3.org/2000/svg" mask="url(#mask)">
                                        <g stroke-linecap="round" stroke-linejoin="round" stroke-width="2" fill="none" fill-rule="evenodd">
                                            <path stroke="#2088FF" d="M28.017 5v3M36.006 7.013l-1.987 2.024M20.021 7.011l1.988 2.011M28.806 30.23c-2.206-3.88-5.25-2.234-5.25-2.234 1.007 2.24 1.688 3.72 2.742 8.724.957 4.551 3.785 7.409 7.687 7.293l5.028 6.003M29.03 34.057L29 20.007m4.012 9.004V17.005m4.006 11.99l-.003-9.353"/>
                                            <path d="M18.993 50.038l4.045-5.993s1.03-.262 1.954-.984m-6.983.96c-4.474-.016-6.986-5.558-6.986-9.979 0-1.764-.439-4.997-1.997-8.004 0 0 3.268-1.24 5.747 3.6.904 1.768.458 5.267.642 5.388.185.121 1.336.554 2.637 2.01m4.955-18.92a976.92 976.92 0 010 5.91m-7.995-4.986l-.003 10.97M10.031 48.021l2.369-3.003" stroke="#79B8FF"/>
                                            <path d="M45.996 47.026l-1.99-2.497-1.993-2.5s2.995-1.485 2.995-6.46V24.033" stroke="#2088FF"/>
                                            <path d="M41 29v-6a2 2 0 114 0v2m-8-4v-4a2 2 0 114 0v7m-8-7v-2a2 2 0 114 0v2m-8 4v-2a2 2 0 114 0v2" stroke="#2088FF"/>
                                            <path d="M23 20v-2a2 2 0 013.043-1.707M19 19v-4a2 2 0 114 0v3m-8 3v-2a2 2 0 114 0v10" stroke="#79B8FF"/>
                                            <path d="M6.7 12c.316 1.122.572 1.372 1.71 1.678-1.136.314-1.39.566-1.7 1.69-.316-1.121-.572-1.372-1.71-1.678 1.135-.314 1.389-.567 1.7-1.69zm42 0c.316 1.122.572 1.372 1.71 1.678-1.136.314-1.39.566-1.7 1.69-.317-1.121-.573-1.372-1.71-1.679 1.135-.313 1.389-.566 1.7-1.689zM28.021 47.627c.317 1.122.573 1.372 1.71 1.678-1.135.314-1.389.566-1.699 1.69-.318-1.121-.573-1.372-1.71-1.679 1.134-.313 1.389-.566 1.699-1.689z" stroke="#2088FF"/>
                                        </g>
                                    </svg>
                                </svg>
                            </div>
                            <div class="info">
                                <div class="title">
                                    <span class="prefix"></span>
                                    Stargazer
                                    <div class="value-wrapper">
                                        <div class="value">29</div>
                                    </div>
                                </div>
                                <div class="text">Starred 29 repositories</div>
                            </div>
                        </div>
                        <div class="achievement c largeable-width-half">
                            <div class="icon">
                                <svg xmlns="http://www.w3.org/2000/svg" viewBox="0 0 60 60" height="44" width="44">
                                    <defs>
                                        <mask id="mask">
                                            <circle class="gauge-base" r="25" cx="28" cy="28" fill="white"/>
                                        </mask>
                                    </defs>
                                    <svg xmlns="http://www.w3.org/2000/svg" class="gauge info">
                                        <circle class="gauge-base" r="25" cx="28" cy="28"/>
                                        <circle class="gauge-arc" transform="rotate(-90 28 28)" r="25" cx="28" cy="28" stroke-dasharray="16.35678391959799 155"/>
                                    </svg>
                                    <svg xmlns="http://www.w3.org/2000/svg" mask="url(#mask)">
                                        <g stroke-width="2" fill="none" fill-rule="evenodd">
                                            <path stroke="#79B8FF" stroke-linecap="round" stroke-linejoin="round" d="M26.022 5.014h6M26.012 53.005h6M27.003 47.003h12M44.01 20.005h5M19.01 11.003h12"/>
                                            <path stroke="#2088FF" stroke-linecap="round" stroke-linejoin="round" d="M38.005 11.008h6M41 14.013v-6M14.007 47.003h6M17.002 50.004v-6"/>
                                            <path d="M29.015 5.01l-5.003 5.992 5.003-5.992zM33.015 47.01l-5.003 5.992 5.003-5.992z" stroke="#79B8FF"/>
                                            <path stroke="#2088FF" stroke-linecap="round" stroke-linejoin="round" d="M8.01 19.002h6"/>
                                            <path stroke="#79B8FF" stroke-linecap="round" stroke-linejoin="round" d="M47.011 29h6"/>
                                            <path stroke="#2088FF" stroke-linecap="round" stroke-linejoin="round" d="M44.012 39.003h6"/>
                                            <g stroke="#79B8FF">
                                                <path d="M5.36 29c4.353 0 6.4 4.472 6.4 8"/>
                                                <path stroke-linecap="round" stroke-linejoin="round" d="M13.99 37.995h-5M10.989 29h-6"/>
                                            </g>
                                            <path d="M24.503 22c1.109 0 2.007.895 2.007 2 0 1.104-.898 2-2.007 2a2.004 2.004 0 01-2.008-2c0-1.105.9-2 2.008-2zM24.5 32a2 2 0 110 4 2 2 0 010-4zm9.5 0a2 2 0 110 4 2 2 0 010-4z" stroke="#2088FF" stroke-linecap="round" stroke-linejoin="round"/>
                                            <path stroke="#2088FF" d="M24.5 26.004v6.001"/>
                                            <path d="M31.076 23.988l1.027-.023a1.998 1.998 0 011.932 2.01L34 31" stroke="#2088FF" stroke-linecap="round" stroke-linejoin="round"/>
                                            <path stroke="#2088FF" stroke-linecap="round" stroke-linejoin="round" d="M31.588 26.222l-2.194-2.046 2.046-2.194"/>
                                            <path d="M29.023 43c7.732 0 14-6.268 14-14s-6.268-14-14-14-14 6.268-14 14 6.268 14 14 14z" stroke="#2088FF"/>
                                        </g>
                                    </svg>
                                </svg>
                            </div>
                            <div class="info">
                                <div class="title">
                                    <span class="prefix"></span>
                                    Contributor
                                    <div class="value-wrapper">
                                        <div class="value">22</div>
                                    </div>
                                </div>
                                <div class="text">Opened 22 pull requests</div>
                            </div>
                        </div>
                        <div class="achievement c largeable-width-half">
                            <div class="icon">
                                <svg xmlns="http://www.w3.org/2000/svg" viewBox="0 0 60 60" height="44" width="44">
                                    <defs>
                                        <mask id="mask">
                                            <circle class="gauge-base" r="25" cx="28" cy="28" fill="white"/>
                                        </mask>
                                    </defs>
                                    <svg xmlns="http://www.w3.org/2000/svg" class="gauge info">
                                        <circle class="gauge-base" r="25" cx="28" cy="28"/>
                                        <circle class="gauge-arc" transform="rotate(-90 28 28)" r="25" cx="28" cy="28" stroke-dasharray="10.125628140703519 155"/>
                                    </svg>
                                    <svg xmlns="http://www.w3.org/2000/svg" mask="url(#mask)">
                                        <g transform="translate(4 4)" stroke-width="2" fill="none" fill-rule="evenodd">
                                            <path d="M33.432 1.924A23.922 23.922 0 0024 0c-3.945 0-7.668.952-10.95 2.638m-9.86 9.398A23.89 23.89 0 000 24a23.9 23.9 0 002.274 10.21m3.45 5.347a23.992 23.992 0 0012.929 7.845m13.048-.664c4.43-1.5 8.28-4.258 11.123-7.848m3.16-5.245A23.918 23.918 0 0048 24c0-1.87-.214-3.691-.619-5.439M40.416 6.493a24.139 24.139 0 00-1.574-1.355" stroke="#79B8FF" stroke-linecap="round"/>
                                            <path stroke="#79B8FF" d="M4.582 33.859l1.613-7.946"/>
                                            <circle stroke="#79B8FF" cx="6.832" cy="23" r="3"/>
                                            <path stroke="#2088FF" d="M17.444 39.854l4.75 3.275"/>
                                            <path stroke="#79B8FF" stroke-linecap="round" d="M7.647 14.952l-.433 4.527"/>
                                            <circle stroke="#2088FF" cx="15" cy="38" r="3"/>
                                            <path stroke="#2088FF" d="M22.216 9.516l.455 4.342"/>
                                            <path stroke="#79B8FF" stroke-linecap="round" d="M34.272 6.952l-2.828 5.25"/>
                                            <path stroke="#2088FF" stroke-linecap="square" d="M11.873 7.235l6.424-.736"/>
                                            <path stroke="#79B8FF" stroke-linecap="round" d="M28.811 5.445l3.718-.671"/>
                                            <path stroke="#2088FF" d="M42.392 22.006l.456-5.763M34.349 24.426l4.374.447"/>
                                            <path d="M20 28c.267-1.727 1.973-3 4-3 2.08 0 3.787 1.318 4 3m-4-9a3 3 0 110 6 3 3 0 010-6z" stroke="#2088FF" stroke-linecap="round" stroke-linejoin="round"/>
                                            <path d="M24 14c5.523 0 10 4.477 10 10s-4.477 10-10 10-10-4.477-10-10 4.477-10 10-10z" stroke="#2088FF" stroke-linecap="round" stroke-linejoin="round"/>
                                            <circle stroke="#79B8FF" cx="35.832" cy="4" r="3"/>
                                            <circle stroke="#79B8FF" cx="44" cy="36" r="3"/>
                                            <circle stroke="#79B8FF" cx="34.832" cy="37" r="3"/>
                                            <circle stroke="#2088FF" cx="21.654" cy="6.437" r="3"/>
                                            <path d="M25.083 48.102a3 3 0 100-6 3 3 0 000 6z" stroke="#2088FF"/>
                                            <path d="M8.832 5a3 3 0 110 6 3 3 0 010-6z" stroke="#2088FF" stroke-linecap="round"/>
                                            <circle stroke="#79B8FF" cx="4" cy="37" r="3"/>
                                            <path d="M42.832 10a3 3 0 110 6 3 3 0 010-6z" stroke="#2088FF" stroke-linecap="round"/>
                                            <path stroke="#79B8FF" stroke-linecap="round" d="M32.313 38.851l-1.786 1.661"/>
                                            <circle stroke="#2088FF" cx="42" cy="25" r="3"/>
                                            <path stroke="#2088FF" stroke-linecap="square" d="M18.228 32.388l-1.562 2.66"/>
                                            <path stroke="#79B8FF" d="M37.831 36.739l2.951-.112"/>
                                        </g>
                                    </svg>
                                </svg>
                            </div>
                            <div class="info">
                                <div class="title">
                                    <span class="prefix"></span>
                                    Influencer
                                    <span class="gh">ranked 932k out of 122m users</span>
                                    <div class="value-wrapper">
                                        <div class="value">14</div>
                                    </div>
                                </div>
                                <div class="text">Followed by 14 users</div>
                            </div>
                        </div>
                        <div class="achievement c largeable-width-half">
                            <div class="icon">
                                <svg xmlns="http://www.w3.org/2000/svg" viewBox="0 0 60 60" height="44" width="44">
                                    <defs>
                                        <mask id="mask">
                                            <circle class="gauge-base" r="25" cx="28" cy="28" fill="white"/>
                                        </mask>
                                    </defs>
                                    <svg xmlns="http://www.w3.org/2000/svg" class="gauge info">
                                        <circle class="gauge-base" r="25" cx="28" cy="28"/>
                                        <circle class="gauge-arc" transform="rotate(-90 28 28)" r="25" cx="28" cy="28" stroke-dasharray="4.673366834170854 155"/>
                                    </svg>
                                    <svg xmlns="http://www.w3.org/2000/svg" mask="url(#mask)">
                                        <g fill="none" fill-rule="evenodd">
                                            <path d="M6 42c.45-3.415 3.34-6 7-6 1.874 0 3.752.956 5 3m-6-13a5 5 0 110 10 5 5 0 010-10zm38 16c-.452-3.415-3.34-6-7-6-1.874 0-3.752.956-5 3m6-13a5 5 0 100 10 5 5 0 000-10z" stroke="#79B8FF" stroke-width="2" stroke-linecap="round"/>
                                            <path d="M37 51c-.92-4.01-4.6-7-9-7-4.401 0-8.083 2.995-9 7" stroke="#2088FF" stroke-width="2" stroke-linecap="round" stroke-linejoin="round"/>
                                            <path d="M28.01 31.004a6.5 6.5 0 110 13 6.5 6.5 0 010-13z" stroke="#2088FF" stroke-width="2" stroke-linecap="round"/>
                                            <path d="M28 14.011a5 5 0 11-5 4.998 5 5 0 015-4.998z" stroke="#79B8FF" stroke-width="2" stroke-linecap="round"/>
                                            <path d="M22 26c1.558-1.25 3.665-2 6-2 2.319 0 4.439.761 6 2" stroke="#79B8FF" stroke-width="2" stroke-linecap="round" stroke-linejoin="round"/>
                                            <path d="M51 9V8c0-1.3-1.574-3-3-3h-8c-1.426 0-3 1.7-3 3v13l4-4h6c2.805-.031 4-1.826 4-4V9zM5 9V8c0-1.3 1.574-3 3-3h8c1.426 0 3 1.7 3 3v13l-4-4H9c-2.805-.031-4-1.826-4-4V9z" stroke="#2088FF" stroke-width="2" stroke-linecap="round" stroke-linejoin="round"/>
                                            <path d="M43 11a1 1 0 11-2 0 1 1 0 012 0zm4 0a1 1 0 11-2 0 1 1 0 012 0zm-36 0a1 1 0 11-2 0 1 1 0 012 0zm4 0a1 1 0 11-2 0 1 1 0 012 0z" fill="#2088FF"/>
                                        </g>
                                    </svg>
                                </svg>
                            </div>
                            <div class="info">
                                <div class="title">
                                    <span class="prefix"></span>
                                    Chatter
                                    <div class="value-wrapper">
                                        <div class="value">7</div>
                                    </div>
                                </div>
                                <div class="text">Participated in discussions 7 times</div>
                            </div>
                        </div>
                        <div class="achievement c largeable-width-half">
                            <div class="icon">
                                <svg xmlns="http://www.w3.org/2000/svg" viewBox="0 0 60 60" height="44" width="44">
                                    <defs>
                                        <mask id="mask">
                                            <circle class="gauge-base" r="25" cx="28" cy="28" fill="white"/>
                                        </mask>
                                    </defs>
                                    <svg xmlns="http://www.w3.org/2000/svg" class="gauge info">
                                        <circle class="gauge-base" r="25" cx="28" cy="28"/>
                                        <circle class="gauge-arc" transform="rotate(-90 28 28)" r="25" cx="28" cy="28" stroke-dasharray="0.15515515515515516 155"/>
                                    </svg>
                                    <svg xmlns="http://www.w3.org/2000/svg" mask="url(#mask)">
                                        <g transform="translate(4 4)" fill="none" fill-rule="evenodd">
                                            <path d="M39 15h.96l4.038 3-.02-3H45a2 2 0 002-2V3a2 2 0 00-2-2H31a2 2 0 00-2 2v4.035" stroke="#79B8FF" stroke-width="2" stroke-linecap="round" stroke-linejoin="round"/>
                                            <path stroke="#2088FF" stroke-width="2" stroke-linecap="round" stroke-linejoin="round" d="M36 5.014l-3 3 3 3M40 5.014l3 3-3 3"/>
                                            <path d="M6 37a1 1 0 110 2 1 1 0 010-2m7 0a1 1 0 110 2 1 1 0 010-2m-2.448 1a1 1 0 11-2 0 1 1 0 012 0z" fill="#2088FF"/>
                                            <path d="M1.724 15.05A23.934 23.934 0 000 24c0 .686.029 1.366.085 2.037m19.92 21.632c1.3.218 2.634.331 3.995.331a23.92 23.92 0 009.036-1.76m13.207-13.21A23.932 23.932 0 0048 24c0-1.363-.114-2.7-.332-4M25.064.022a23.932 23.932 0 00-10.073 1.725" stroke="#79B8FF" stroke-width="2" stroke-linecap="round"/>
                                            <path d="M19 42.062V43a2 2 0 01-2 2H9.04l-4.038 3 .02-3H3a2 2 0 01-2-2V33a2 2 0 012-2h4.045" stroke="#79B8FF" stroke-width="2" stroke-linecap="round" stroke-linejoin="round"/>
                                            <path d="M6 0a6 6 0 110 12A6 6 0 016 0z" stroke="#2088FF" stroke-width="2" stroke-linecap="round" stroke-linejoin="round"/>
                                            <path stroke="#2088FF" stroke-width="2" stroke-linecap="round" d="M6 3v6M3 6h6"/>
                                            <path d="M42 36a6 6 0 110 12 6 6 0 010-12z" stroke="#2088FF" stroke-width="2" stroke-linecap="round" stroke-linejoin="round"/>
                                            <path stroke="#2088FF" stroke-width="2" stroke-linecap="round" stroke-linejoin="round" d="M44.338 40.663l-3.336 3.331-1.692-1.686M31 31c-.716-2.865-3.578-5-7-5-3.423 0-6.287 2.14-7 5"/>
                                            <path d="M24 16a5 5 0 110 10 5 5 0 010-10z" stroke="#2088FF" stroke-width="2" stroke-linecap="round"/>
                                            <circle stroke="#2088FF" stroke-width="2" cx="24" cy="24" r="14"/>
                                        </g>
                                    </svg>
                                </svg>
                            </div>
                            <div class="info">
                                <div class="title">
                                    <span class="prefix"></span>
                                    Maintainer
                                    <div class="value-wrapper">
                                        <div class="value">2</div>
                                    </div>
                                </div>
                                <div class="text">Maintaining a repository with 2 stars</div>
                            </div>
                        </div>
                        <div class="achievement c largeable-width-half">
                            <div class="icon">
                                <svg xmlns="http://www.w3.org/2000/svg" viewBox="0 0 60 60" height="44" width="44">
                                    <defs>
                                        <mask id="mask">
                                            <circle class="gauge-base" r="25" cx="28" cy="28" fill="white"/>
                                        </mask>
                                    </defs>
                                    <svg xmlns="http://www.w3.org/2000/svg" class="gauge info">
                                        <circle class="gauge-base" r="25" cx="28" cy="28"/>
                                        <circle class="gauge-arc" transform="rotate(-90 28 28)" r="25" cx="28" cy="28" stroke-dasharray="0 155"/>
                                    </svg>
                                    <svg xmlns="http://www.w3.org/2000/svg" mask="url(#mask)">
                                        <g transform="translate(4 4)" fill="none" fill-rule="evenodd">
                                            <path d="M20.065 47.122c.44-.525.58-1.448.58-1.889 0-2.204-1.483-3.967-3.633-4.187.447-1.537.58-2.64.397-3.31-.25-.92-.745-1.646-1.409-2.235m-5.97-7.157c.371-.254.911-.748 1.62-1.48a8.662 8.662 0 001.432-2.366M47 22h-7c-1.538 0-2.749-.357-4-1h-5c-1.789.001-3-1.3-3-2.955 0-1.656 1.211-3.04 3-3.045h2c.027-1.129.513-2.17 1-3m3.082 32.004C34.545 43.028 34.02 40.569 34 39v-1h-1c-2.603-.318-5-2.913-5-5.997S30.397 26 33 26h9c2.384 0 4.326 1.024 5.27 3" stroke="#79B8FF" stroke-linecap="round" stroke-linejoin="round" stroke-width="2"/>
                                            <g transform="translate(36)" stroke="#2088FF" stroke-width="2">
                                                <path fill="#2088FF" stroke-linecap="round" stroke-linejoin="round" d="M5.395 5.352L6.009 4l.598 1.348L8 5.408l-1.067 1.12.425 1.47-1.356-.908-1.35.91.404-1.469L4 5.41z"/>
                                                <circle cx="6" cy="6" r="6"/>
                                            </g>
                                            <g transform="translate(0 31)" stroke="#2088FF" stroke-width="2">
                                                <circle cx="6" cy="6" r="6"/>
                                                <g stroke-linecap="round">
                                                    <path d="M6 4v4M4 6h4"/>
                                                </g>
                                            </g>
                                            <circle stroke="#2088FF" stroke-width="2" cx="10.5" cy="10.5" r="10.5"/>
                                            <g stroke-linecap="round">
                                                <path d="M32.01 1.37A23.96 23.96 0 0024 0c-.999 0-1.983.061-2.95.18M.32 20.072a24.21 24.21 0 00.015 7.948M12.42 45.025A23.892 23.892 0 0024 48c13.255 0 24-10.745 24-24 0-2.811-.483-5.51-1.371-8.016" stroke="#79B8FF" stroke-width="2"/>
                                                <path stroke="#2088FF" stroke-width="2" d="M8.999 7.151v5.865"/>
                                                <path d="M9 3a2 2 0 110 4 2 2 0 010-4zm0 10.8a2 2 0 11-.001 4 2 2 0 01.001-4z" stroke="#2088FF" stroke-width="1.8"/>
                                                <path d="M9.622 11.838c.138-.007.989.119 1.595-.05.607-.169 1.584-.539 1.829-1.337" stroke="#2088FF" stroke-width="2"/>
                                                <path d="M14.8 7.202a2 2 0 110 4 2 2 0 010-4z" stroke="#2088FF" stroke-width="1.8"/>
                                            </g>
                                        </g>
                                    </svg>
                                </svg>
                            </div>
                            <div class="info">
                                <div class="title">
                                    <span class="prefix"></span>
                                    Inspirer
                                    <span class="gh">ranked 5.02m out of 184m repositories</span>
                                    <div class="value-wrapper">
                                        <div class="value">1</div>
                                    </div>
                                </div>
                                <div class="text">Maintaining or created a repository which has been forked 1 time</div>
                            </div>
                        </div>
                        <div class="achievement secret largeable-width-half">
                            <div class="icon">
                                <svg xmlns="http://www.w3.org/2000/svg" viewBox="0 0 60 60" height="44" width="44">
                                    <defs>
                                        <mask id="mask">
                                            <circle class="gauge-base" r="25" cx="28" cy="28" fill="white"/>
                                        </mask>
                                    </defs>
                                    <svg xmlns="http://www.w3.org/2000/svg" class="gauge info">
                                        <circle class="gauge-base" r="25" cx="28" cy="28"/>
                                        <circle class="gauge-arc" transform="rotate(-90 28 28)" r="25" cx="28" cy="28" stroke-dasharray="155 155"/>
                                    </svg>
                                    <svg xmlns="http://www.w3.org/2000/svg" mask="url(#mask)">
                                        <g transform="translate(3 4)" fill="none" fill-rule="evenodd">
                                            <path d="M10 37.5l.049.073a2 2 0 002.506.705l24.391-11.324a2 2 0 00.854-2.874l-2.668-4.27a2 2 0 00-2.865-.562L10.463 34.947A1.869 1.869 0 0010 37.5zM33.028 28.592l-4.033-6.58" stroke="#FF48BD" stroke-width="2" stroke-linecap="round" stroke-linejoin="round"/>
                                            <path stroke="#FF48BD" stroke-width="2" stroke-linejoin="round" d="M15.52 37.004l-2.499-3.979"/>
                                            <path stroke="#FF48BD" stroke-width="2" stroke-linecap="round" stroke-linejoin="round" d="M25.008 48.011l.013-15.002M17.984 47.038l6.996-14.035M32.005 47.029l-6.987-14.016"/>
                                            <path d="M2.032 17.015A23.999 23.999 0 001 24c0 9.3 5.29 17.365 13.025 21.35m22-.027C43.734 41.33 49 33.28 49 24a24 24 0 00-1.025-6.96M34.022 1.754A23.932 23.932 0 0025 0c-2.429 0-4.774.36-6.983 1.032" stroke="#FF92D8" stroke-width="2" stroke-linecap="round" stroke-linejoin="round"/>
                                            <path d="M40.64 8.472c-1.102-2.224-.935-4.764 1.382-6.465-.922-.087-2.209.326-3.004.784a6.024 6.024 0 00-2.674 7.229c.94 2.618 3.982 4.864 7.66 3.64 1.292-.429 2.615-1.508 2.996-2.665-1.8.625-5.258-.3-6.36-2.523zM21.013 6.015c-.22-.802-3.018-1.295-4.998-.919M4.998 8.006C2.25 9.22.808 11.146 1.011 12.009" stroke="#FF48BD" stroke-width="2" stroke-linecap="round" stroke-linejoin="round"/>
                                            <circle stroke="#FF92D8" stroke-width="2" cx="11" cy="9" r="6"/>
                                            <path d="M.994 12.022c.351 1.38 5.069 1.25 10.713-.355 5.644-1.603 9.654-4.273 9.303-5.653" stroke="#FF48BD" stroke-width="2" stroke-linecap="round" stroke-linejoin="round"/>
                                            <path d="M26.978 10.105c.318 1.123.573 1.373 1.71 1.679-1.135.314-1.388.566-1.698 1.69-.318-1.122-.573-1.373-1.711-1.679 1.135-.314 1.39-.566 1.7-1.69" fill="#FF92D8"/>
                                            <path d="M26.978 10.105c.318 1.123.573 1.373 1.71 1.679-1.135.314-1.388.566-1.698 1.69-.318-1.122-.573-1.373-1.711-1.679 1.135-.314 1.39-.566 1.7-1.69z" stroke="#FF92D8" stroke-width="2" stroke-linecap="round" stroke-linejoin="round"/>
                                            <path d="M9.929 22.737c.317 1.121.573 1.372 1.71 1.678-1.135.314-1.389.566-1.699 1.69-.318-1.121-.573-1.372-1.71-1.679 1.134-.313 1.389-.566 1.699-1.69" fill="#FF92D8"/>
                                            <path d="M9.929 22.737c.317 1.121.573 1.372 1.71 1.678-1.135.314-1.389.566-1.699 1.69-.318-1.121-.573-1.372-1.71-1.679 1.134-.313 1.389-.566 1.699-1.69z" stroke="#FF92D8" stroke-width="2" stroke-linecap="round" stroke-linejoin="round"/>
                                            <path d="M38.912 33.684c.318 1.122.573 1.373 1.711 1.679-1.136.313-1.39.565-1.7 1.69-.317-1.123-.573-1.372-1.71-1.68 1.136-.313 1.389-.565 1.7-1.689" fill="#FF92D8"/>
                                            <path d="M38.912 33.684c.318 1.122.573 1.373 1.711 1.679-1.136.313-1.39.565-1.7 1.69-.317-1.123-.573-1.372-1.71-1.68 1.136-.313 1.389-.565 1.7-1.689z" stroke="#FF92D8" stroke-width="2" stroke-linecap="round" stroke-linejoin="round"/>
                                        </g>
                                    </svg>
                                </svg>
                            </div>
                            <div class="info">
                                <div class="title">
                                    <span class="prefix"></span>
                                    Explorer
                                    <div class="value-wrapper">
                                        <div class="value">☆</div>
                                    </div>
                                </div>
                                <div class="text">Starred a topic on GitHub Explore</div>
                            </div>
                        </div>
                        <div class="achievement secret largeable-width-half">
                            <div class="icon">
                                <svg xmlns="http://www.w3.org/2000/svg" viewBox="0 0 60 60" height="44" width="44">
                                    <defs>
                                        <mask id="mask">
                                            <circle class="gauge-base" r="25" cx="28" cy="28" fill="white"/>
                                        </mask>
                                    </defs>
                                    <svg xmlns="http://www.w3.org/2000/svg" class="gauge info">
                                        <circle class="gauge-base" r="25" cx="28" cy="28"/>
                                        <circle class="gauge-arc" transform="rotate(-90 28 28)" r="25" cx="28" cy="28" stroke-dasharray="155 155"/>
                                    </svg>
                                    <svg xmlns="http://www.w3.org/2000/svg" mask="url(#mask)">
                                        <g transform="translate(4 5)" stroke-width="2" fill="none" fill-rule="evenodd">
                                            <g stroke-linecap="round" stroke-linejoin="round">
                                                <path stroke="#FF48BD" d="M26.478 22l.696 2.087 3.478.696v2.782l-3.478 1.392-.696 1.39 1.392 3.48-1.392 1.39L23 33.827l-1.391.695L20.217 38h-2.782l-1.392-3.478-1.39-.696-3.48 1.391-1.39-1.39 1.39-3.48-.695-1.39L7 27.565v-2.782l3.478-1.392.696-1.391-1.391-3.478 1.39-1.392 3.48 1.392 1.39-.696 1.392-3.478h2.782l1.392 3.478 1.391.696 3.478-1.392 1.392 1.392z"/>
                                                <path stroke="#FF92D8" d="M24.779 12.899l-1.475-2.212 1.475-1.475 2.95 1.475 1.474-.738.737-2.934h2.212l.737 2.934 1.475.738 2.95-1.475 1.474 1.475-1.475 2.949.738 1.475 2.949.737v2.212l-2.95.737-.737 1.475 1.475 2.949-1.475 1.475-2.949-1.475"/>
                                            </g>
                                            <path stroke="#FF48BD" stroke-linecap="round" d="M5.932 5.546l7.082 6.931"/>
                                            <path stroke="#FF92D8" stroke-linecap="round" d="M32.959 31.99l8.728 8.532"/>
                                            <circle stroke="#FF92D8" cx="44" cy="43" r="3"/>
                                            <circle stroke="#FF48BD" cx="13" cy="2" r="2"/>
                                            <circle stroke="#FF92D8" cx="35" cy="44" r="2"/>
                                            <circle stroke="#FF92D8" cx="3" cy="12" r="2"/>
                                            <circle stroke="#FF48BD" cx="45" cy="34" r="2"/>
                                            <path d="M3.832 0a3 3 0 110 6 3 3 0 010-6zM8.04 10.613l2.1-.613M10.334 9.758l1.914-5.669" stroke="#FF48BD" stroke-linecap="round"/>
                                            <path stroke="#FF92D8" stroke-linecap="round" d="M40.026 35.91l-2.025.591M35.695 41.965l1.843-5.326"/>
                                            <path d="M16 2h23.038a6 6 0 016 6v24.033" stroke="#FF48BD" stroke-linecap="round"/>
                                            <path d="M32.038 44.033H9a6 6 0 01-6-6V14" stroke="#FF92D8" stroke-linecap="round"/>
                                            <path d="M17.533 22.154l5.113 3.22a1 1 0 01-.006 1.697l-5.113 3.17a1 1 0 01-1.527-.85V23a1 1 0 011.533-.846zm11.58-7.134v-.504a1 1 0 011.53-.85l3.845 2.397a1 1 0 01-.006 1.701l-3.846 2.358" stroke="#FF48BD" stroke-linecap="round" stroke-linejoin="round"/>
                                        </g>
                                    </svg>
                                </svg>
                            </div>
                            <div class="info">
                                <div class="title">
                                    <span class="prefix"></span>
                                    Automator
                                    <div class="value-wrapper">
                                        <div class="value">☆</div>
                                    </div>
                                </div>
                                <div class="text">Use GitHub Actions to automate profile updates</div>
                            </div>
                        </div>
                    </section>
                </div>
            </section>
        </div>
        <div xmlns="http://www.w3.org/1999/xhtml" id="metrics-end"></div>
    </foreignObject>
</svg>